10

5 13
6
4 5
3 8
3 7
0 8
1 1
0 5
3 2

7 7
5
6 1
2 4
2 2
4 6
4 1
6 1

14 13
7
13 5
12 4
8 4
0 3
12 11
13 9
8 3
1 1

15 5
12
5 1
9 2
3 1
12 3
8 1
8 4
0 0
9 0
2 1
10 3
6 2
2 4
3 2

7 6
9
6 5
6 5
4 2
0 2
6 2
2 1
6 0
0 4
1 1
3 1

10 13
6
9 0
7 8
7 2
6 12
5 10
1 12
1 2

6 7
10
5 6
1 1
5 5
3 1
1 5
2 3
5 0
5 3
5 0
4 3
1 1

5 11
7
3 0
3 3
4 5
2 1
0 2
3 10
4 4
8 2

5 6
11
2 4
1 5
2 2
1 5
3 2
3 1
4 0
0 5
1 5
1 5
2 1
4 2

6 8
6
0 4
4 2
2 4
4 6
0 6
2 1
5 2
