*** Life<FredkinCell> 8x8 ***

Generation = 0, Population = 10.
--------
--------
--0-----
---000--
-0-0----
0--0----
---0----
0-------

*** Life<FredkinCell> 1x4 ***

Generation = 0, Population = 3.
00-0

Generation = 2, Population = 3.
220-

*** Life<FredkinCell> 5x3 ***

Generation = 0, Population = 7.
---
-0-
-00
000
--0

Generation = 1, Population = 9.
-0-
01-
-1-
111
0-1

Generation = 2, Population = 10.
-10
120
0--
-2-
102

Generation = 3, Population = 9.
---
-3-
110
13-
213

Generation = 4, Population = 8.
-1-
-4-
--1
241
-24

Generation = 5, Population = 11.
020
15-
112
352
---

Generation = 6, Population = 10.
-31
260
2--
-6-
224

*** Life<FredkinCell> 8x3 ***

Generation = 0, Population = 9.
-00
0--
00-
-00
0--
-0-
---
---

Generation = 1, Population = 11.
-11
100
---
0-1
-00
--0
-0-
---

Generation = 2, Population = 11.
---
21-
-0-
-02
-11
-01
0--
-0-

Generation = 3, Population = 12.
01-
3-0
---
01-
022
---
-00
--0

Generation = 4, Population = 11.
-2-
41-
-00
---
-33
0--
01-
--1

Generation = 5, Population = 12.
-31
52-
--1
---
-44
101
-2-
0--

Generation = 6, Population = 8.
--2
6-0
0--
-1-
---
2--
03-
---

Generation = 7, Population = 15.
033
7-1
1-1
--2
04-
3--
-40
00-

Generation = 8, Population = 10.
---
-2-
2--
--3
-5-
401
0-1
1--

*** Life<FredkinCell> 6x4 ***

Generation = 0, Population = 10.
--0-
--00
0-0-
00--
-0--
00--

Generation = 2, Population = 9.
----
---2
-1--
-0--
1-10
2-10

Generation = 4, Population = 10.
-0--
---2
2-2-
0-01
--10
4---

Generation = 6, Population = 17.
1021
111-
-2-1
212-
-110
4--1

*** Life<FredkinCell> 7x9 ***

Generation = 0, Population = 10.
----0---0
---0-----
---0--0--
---0-----
---------
--0-----0
0--0-----

Generation = 2, Population = 25.
--000-0--
-0-2-0---
-0---1---
-012-0--0
0-----0--
1--00-0-0
-100-0---

*** Life<FredkinCell> 3x7 ***

Generation = 0, Population = 10.
-0--0--
00000--
0-0---0

Generation = 1, Population = 12.
-1--10-
-11--00
101-00-

Generation = 2, Population = 12.
02-02--
-2-0011
21--1--

Generation = 3, Population = 8.
1-----0
0-----2
3-1-2-0

Generation = 4, Population = 10.
22---01
-21-01-
4-----1

Generation = 5, Population = 8.
3-----2
0-2-1-2
--1-2--

Generation = 6, Population = 16.
420-203
1-3-2-3
412-301

Generation = 7, Population = 0.
-------
-------
-------

*** Life<FredkinCell> 2x4 ***

Generation = 0, Population = 7.
0000
00-0

Generation = 2, Population = 4.
0--0
--12

Generation = 4, Population = 5.
-20-
113-

Generation = 6, Population = 7.
0202
33-3

*** Life<FredkinCell> 5x4 ***

Generation = 0, Population = 9.
0---
0-0-
0--0
--0-
0-00

Generation = 1, Population = 10.
100-
----
100-
-010
---1

Generation = 2, Population = 8.
2-10
----
21--
--2-
-0-2

Generation = 3, Population = 11.
--21
-000
32--
00--
0-0-

Generation = 4, Population = 7.
----
--1-
-3-0
1---
10-2

Generation = 5, Population = 5.
--2-
----
--0-
20--
-1--

Generation = 6, Population = 7.
-0-1
----
3--0
3---
-20-

Generation = 7, Population = 12.
2---
00--
430-
4-20
-312

Generation = 8, Population = 8.
3---
1---
54--
5-3-
-42-

*** Life<FredkinCell> 8x1 ***

Generation = 0, Population = 6.
0
-
0
0
-
0
0
0

Generation = 2, Population = 3.
-
0
2
2
-
-
-
-
