*** Life<Cell> 5x5 ***

Generation = 0, Population = 10.
0--0-
--0-0
--00-
0-0--
0---0

Generation = 1, Population = 15.
-0---
001--
0011-
1-1-0
1000-

Generation = 2, Population = 6.
-1---
-----
11-*-
-----
--11-

Generation = 3, Population = 14.
0-0--
0--0-
**-.0
101--
-0**0

Generation = 4, Population = 4.
1----
-----
..-*-
-----
--.*1

Generation = 5, Population = 7.
-1---
0--0-
..1.0
----0
--..*

Generation = 6, Population = 5.
--00-
-----
..-.1
--10-
--...

Generation = 7, Population = 12.
-1110
--100
..1*-
-0*1-
--...

Generation = 8, Population = 11.
1***-
--*--
..*.-
11.-0
-0*..

Generation = 9, Population = 12.
****0
0-.--
..**1
*-.1-
--*..

Generation = 10, Population = 14.
****1
1-.--
.****
.1.*-
10...

*** Life<Cell> 5x5 ***

Generation = 0, Population = 10.
--000
0---0
--0--
-0--0
--00-

Generation = 1, Population = 11.
001--
-0--1
0--0-
0-0--
--11-

Generation = 2, Population = 15.
11*00
01---
1----
1-10-
00-*0

Generation = 3, Population = 14.
-**-1
1--01
--00-
-0*--
-11*1

Generation = 4, Population = 13.
-**0*
--0--
1----
1-.00
0-***

Generation = 5, Population = 16.
1**-.
1-1-1
*0000
-0*--
1-*.*

Generation = 6, Population = 10.
-.*0.
---0*
*1---
1-.--
-1**.

Generation = 7, Population = 15.
-.*-*
11--*
**000
*0.0-
-**..

Generation = 8, Population = 9.
1*.-.
--1-*
..-1-
.1.1-
-**..

Generation = 9, Population = 11.
**.-.
1--0.
..-*-
.*.*0
1**..

Generation = 10, Population = 16.
**.0.
*-11.
..0*-
**.*1
****.

*** Life<Cell> 1x10 ***

Generation = 0, Population = 8.
0000000--0

Generation = 1, Population = 4.
1-----100-

Generation = 2, Population = 5.
-0---0*-10

Generation = 3, Population = 6.
1-0-01.-*1

Generation = 4, Population = 4.
----1*.0.*

Generation = 5, Population = 2.
---0*..-..

Generation = 6, Population = 2.
--01...-..

Generation = 7, Population = 3.
-01*...-..

Generation = 8, Population = 2.
11-....-..

Generation = 9, Population = 3.
**1....-..

Generation = 10, Population = 2.
.**....-..

*** Life<Cell> 10x1 ***

Generation = 0, Population = 8.
0
0
-
0
0
0
0
-
0
0

Generation = 1, Population = 6.
1
1
-
1
-
-
1
-
1
1

Generation = 2, Population = 6.
*
*
-
-
0
0
-
-
*
*

Generation = 3, Population = 6.
.
.
0
1
1
1
1
0
.
.

Generation = 4, Population = 2.
.
.
1
-
-
-
-
1
.
.

Generation = 5, Population = 2.
.
.
-
1
-
-
1
-
.
.

Generation = 6, Population = 4.
.
.
1
-
1
1
-
1
.
.

Generation = 7, Population = 2.
.
.
-
-
*
*
-
-
.
.

Generation = 8, Population = 2.
.
.
-
1
.
.
1
-
.
.

Generation = 9, Population = 2.
.
.
1
-
.
.
-
1
.
.

Generation = 10, Population = 2.
.
.
-
1
.
.
1
-
.
.

*** Life<Cell> 10x10 ***

Generation = 0, Population = 20.
-0--0--0--
0-----0---
-0--0----0
--0-----0-
----0---0-
-0--------
-----0----
----0--0-0
--------0-
-0--0-----

Generation = 1, Population = 38.
--00-0--0-
-0---0---0
---0-00---
---0---01-
-000-0-010
0-0-00--0-
-0----00-0
---0--0-0-
-0--------
0-00-0--0-

Generation = 2, Population = 42.
--11-100--
0---0-----
-001--1-00
-0--0-----
-11-01---1
--101--010
---00--1--
--0-0010--
-----00---
-011--00-0

Generation = 3, Population = 50.
00**0*-10-
---0---000
---*00--11
0-0-1-0-1-
0--01*00-*
---1*-0---
--0-1----0
-0-0-1*-0-
-0-0--10-0
01-*0--1--

Generation = 4, Population = 41.
1-**-.----
00--0-0---
0--.11--*-
1-----10*0
11---.-11.
0---.01---
----*-----
01010**0-0
--------0-
1--*10-*00

Generation = 5, Population = 51.
*0**-.0---
11--10-00-
---.-*1-*-
----1-*1.1
**1--*0--*
1---.1*-1-
-00-.0-1-0
1---1**10-
-00---1010
-11.-1-*11

Generation = 6, Population = 46.
*1**-*--0-
----*--1-0
00-.1.--.-
1000--.*.*
***0-.1--*
*0--**.0-0
0110.--*--
-1-1*..--0
---000----
1--.1-0.*-

Generation = 7, Population = 43.
.-**0.0---
--0-*-0-0-
---.*.--.-
*-1---..*.
...--*-11*
.111**.1-1
----.00.0-
-*0*.*.10-
000--1--10
-1-**1-..1

Generation = 8, Population = 45.
.1*.-.110-
-110*-1--0
0--..*1-.-
.--010.***
...0-*--**
.*--...*-*
----.11.1-
-.1*.*.*1-
1--0--1---
-*1**-0.**

Generation = 9, Population = 42.
.-..0*--1-
--*-*0----
--0...--.-
.-1--1.*.*
..*11*11..
..11**.*-*
-110*-*.*-
1.**.*..-0
--0---*--0
-*-**-1*..

Generation = 10, Population = 44.
.-.*-*11-0
-1.-*-1-0-
-0-.**-0.1
.0---*.**.
.*.**.-*..
..*-....1.
-*--.-***0
-....***-1
1-100-*-11
1.1*.--*..

Generation = 11, Population = 47.
.1..0***1-
1**-.-*--0
0-0.*.11.-
*-101*.*..
.*.**.1*..
.**-..*.**
0.--.-...-
1****...--
*--111.-*-
*.-.*--**.

Generation = 12, Population = 43.
***.1****-
-.*0*-.1--
-0-.*.--*1
*0-1-...*.
*.....-...
***-.**.*.
1.-0.-...0
*.*..*..1-
*----*.-*1
..-**-1**.

Generation = 13, Population = 43.
.**.-****0
1..-.-.*00
-1-.*.--**
*----...**
......1*..
*.*-......
-.1-*-***-
*...*...*1
.011-*.-.*
..1.*1****

Generation = 14, Population = 35.
.*..1.*..-
-.*-.0..-1
0-0...--..
.---1....*
.*....***.
.*.1.*..*.
-.*-.-.**-
....*.*..-
.1**-..0..
.**.******

Generation = 15, Population = 40.
....-*...0
1.*0.-..0-
--1*..--..
.011-..**.
..*.******
.*.-.....*
-.*-*1***0
.*....*.*-
.-..1..1..
.*..*****.

Generation = 16, Population = 31.
....1....-
-**-*0..--
0-*.*.-1*.
.1---*...*
....***..*
.**-......
-**-.-*..-
...**....-
.-..*..*..
....*****.

Generation = 17, Population = 39.
...***...-
-**-*1..0-
--*.*.1**.
.---1..*.*
.**.***...
.**1..*...
1*.-.1...-
..****...-
.-.....**.
....*****.

Generation = 18, Population = 34.
..**.*...-
1**0.-..11
--*.*.*..*
.1-1-.....
.*..*.**..
...*..*...
*..-.**..-
.******..-
.-......*.
.....**.*.

Generation = 19, Population = 34.
...**....0
*..-.1..*-
01..*...**
.*1-1.**..
...*****..
....*.....
.*.-...*.-
.****.**.-
.1**......
.......*..

Generation = 20, Population = 35.
....*....-
**.0.-..*1
--***.*.**
***1-.....
..*....*..
...**..*..
.*.0****.-
*...*.**.-
.-..*.**..
..*.......

Generation = 21, Population = 21.
.........0
.*.1.-.**-
-1..*..***
...--..**.
....*.....
.......**.
..*-....*-
........*-
.-.*..**..
..........

Generation = 22, Population = 19.
........*-
..*-.-.*.1
0**...*..*
...--..*.*
..........
.......**.
...0....*0
........*1
.-.....*..
..........

Generation = 23, Population = 19.
........*-
..*1.-.*.*
1**...**.*
.*.--...*.
.......*..
.......***
...-.....-
.......*.-
.-......*.
..........

Generation = 24, Population = 22.
........*-
..**.-**.*
*..*..**.*
***--.*.*.
.......*.*
.......**.
...-...*.0
.........-
.-........
..........

Generation = 25, Population = 24.
.......**-
..**.1*..*
*..*.*...*
***--.*..*
.*....*..*
......**.*
...-...*.-
.........1
.-........
..........

Generation = 26, Population = 29.
......***-
..**.-**.*
*..*.*..**
*.*--**.**
***..**..*
......**..
...-..**.-
.........-
.-........
..........

Generation = 27, Population = 18.
......*.*-
..***-...*
...*.*....
*.*-1.....
*.*......*
.*......*.
...-..**.-
.........-
.-........
..........

Generation = 28, Population = 15.
...*.....-
..***-....
.*...*....
..*1-.....
*.**......
.*.....**.
...-...*.-
.........-
.-........
..........

Generation = 29, Population = 15.
..***....-
..***-....
.*........
...-1.....
...*......
.**....**.
...-...**-
.........-
.-........
..........

Generation = 30, Population = 15.
..*.*....-
.*..*1....
..*.*.....
...--.....
..**......
..*....**.
...-...**0
.........-
.-........
..........

Generation = 31, Population = 23.
...***...-
.**.**....
...***....
..*11.....
..**......
..**...*.*
...-...*.1
........*1
.-........
..........

Generation = 32, Population = 13.
..**.*...-
..*...*...
.*........
...--*....
.*........
..**......
...0...*.-
........*-
.-........
..........

Generation = 33, Population = 12.
..**.....-
.***......
..........
...-1.....
..*.......
..**......
..*1.....-
.........1
.-........
..........

Generation = 34, Population = 11.
.*.*.....-
.*.*......
..**......
...1-.....
..*.......
.*........
..*-.....1
.........-
.-........
..........

Generation = 35, Population = 12.
.........-
.*.**.....
...**.....
...*1.....
..*.......
.**.......
...1.....-
.........1
.-........
..........

Generation = 36, Population = 12.
.........-
..***.....
.....*....
..*.-.....
.**.......
.***......
..*-.....1
.........-
.-........
..........

Generation = 37, Population = 11.
...*.....-
...**.....
..*.*.....
.**.-.....
..........
...*......
.**-.....-
.........1
.-........
..........

Generation = 38, Population = 15.
...**....-
..*.*.....
.**.*.....
.***1.....
..*.......
..*.......
..*-.....1
.........-
.-........
..........

Generation = 39, Population = 13.
...**....-
.**.**....
....**....
....-.....
..........
.***......
...1.....-
.........1
.-........
..........

Generation = 40, Population = 14.
..****...-
..*.......
...***....
....1.....
..*.......
..**......
...*.....1
.........-
.-........
..........

*** Life<Cell> 10x10 ***

Generation = 0, Population = 20.
0-0--0--0-
----0-0---
---0------
----0-----
-0--0-----
-0--0-0-0-
-0----0---
-0--------
----------
-0-00-----

Generation = 1, Population = 44.
---0---0-0
0-0--0-00-
--0-0-0---
-0--10----
0100-00-0-
0-001-1--0
0-0-00100-
010---0---
---00-----
0--110----

Generation = 2, Population = 35.
0---00010-
--1---0-1-
0-1-1---0-
-10---0-0-
-*1-------
-011----0-
-0-0----1-
------1-0-
-0----0---
-00-*10---

Generation = 3, Population = 53.
-0001-1--0
-0*0--10-0
-0---0-0-0
--1010--10
0.*---0---
01*-1--010
01010-10-0
---0-0*-10
01--0--00-
0-1-.--0--

Generation = 4, Population = 37.
0-11*-*-01
01.-------
011--1010-
0-------*-
1..-------
1*.1*01---
-*1*-0----
---1-1.---
-*--------
10-1.-01--

Generation = 5, Population = 45.
10*-.-.-1*
1-.000-0-0
1**01*---0
--1--00-*0
-..0000-0-
-..-.1*0--
-*-.0-----
---*-*.---
-*0--000--
*---.11*0-

Generation = 6, Population = 41.
--*-*0.-**
-1.-1---1-
-..1*.-1--
0-*011--*-
-..1--101-
-..1.-.1--
0.1.-010--
---*0*.0--
-*1-011---
.-1-.-*.10

Generation = 7, Population = 47.
--.-*1.1**
1-*-----*-
1*.-..0-0-
--*-**-0*0
1..---*1-0
1.***1.---
-.-.---11-
010.1..11-
0*-0-*--00
.-*1.-***1

Generation = 8, Population = 46.
1-.1.*.***
*1.0101-.-
-.*-.*-1--
--.-.*--.-
*.*1-0.-11
**.***.-10
-.-.-01--0
-*1*-.*-*-
-.-10*-01-
.-*-*-**.-

Generation = 9, Population = 54.
*-**.*.**.
**.---*0.0
1**-..0-0-
0-*0.*00*0
*.*-0-*1--
**.*...1-1
0.1.---111
0.-*-..1*-
-*1-1.---0
.0.1*1***-

Generation = 10, Population = 40.
*0*....**.
...0--.-.-
*..-..--10
-1.1*.-1.1
*..--0.*--
*..*...-1*
-.-*--1**-
1.1*-..-.0
-**-*.1-1-
.1.**-***-

Generation = 11, Population = 43.
.-*.......
*.*-1-.0.0
..*-*.--*-
0-.**.0*.*
***---**--
....*..1-*
-*-*00**.1
-.-.-**1.-
-..-*.*0*-
.*.**-*.*1

Generation = 12, Population = 37.
.0.*......
..*-*0.-*-
..*1*.01.0
1-..*.-...
***--0..1-
*...*..--.
0.-*11...*
-.-*1..*.0
-..-*..1.-
...**-*.**

Generation = 13, Population = 40.
.-***.....
.*.-.1*-*-
.**-..1**-
*-..*.0**.
*..10-..-1
*.*....-1.
1.1.-*..*.
1.1.*.*..1
-..1..**.-
...**-.**.

Generation = 14, Population = 52.
.-****....
.*.0***0*0
***1..*..0
*-*.*.-..*
*..*-0..1-
*.*.*..1**
-.-.-*.***
*.*.*.*.*-
0.**..*..0
...**1***.

Generation = 15, Population = 38.
.-*....**.
*..1...-*-
*..-..*..-
*1..**0.**
*.*.--.**1
.*.***.-..
-.-.1*....
..*.*.*..1
1.*......-
..***-***.

Generation = 16, Population = 40.
.0.....**.
.*.-...-*0
*..1*.*.*0
**...*-..*
*.*.--.*.-
.***.**1*.
-.1.*.*...
.*..*....-
-.*.*.*.*0
.***.-.*..

Generation = 17, Population = 48.
.1.....***
***1...-.-
*.****.*.1
*.****-*.*
*..*--.*.1
....**.**.
-.*.*.*...
.**.*..*.1
-...**.**1
.***.-.**.

Generation = 18, Population = 39.
**......*.
*..-..*-.-
*....*...*
*....*-*.*
.**.0-.*.*
....**.**.
-**.*.*...
.**.*..*.*
-...**...-
..***1**.*

Generation = 19, Population = 36.
**........
*..-...0.0
**...*..*.
*...**-..*
.*.*10.*.*
....*..**.
1**.*.*...
.**.*.*...
-*.....*.-
...*.**...

Generation = 20, Population = 33.
**........
...-...-*-
**..***.**
*.**..0..*
...*--.*.*
*......**.
*.*.*.*...
......**..
1*.**..*.-
......*...

Generation = 21, Population = 41.
..........
...-.*.0*-
*******.**
*.**..1..*
.***1-**.*
.*.*..***.
.*...**.*.
*.*.*.**..
*....*.*.-
..........

Generation = 22, Population = 28.
..........
.**1.*.1*-
*........*
*.....-..*
*...*-...*
**.*.....*
**.**...*.
*...*...*.
.*...*.*.-
..........

Generation = 23, Population = 31.
..*.......
.***...**-
*.*......*
**....-.**
*....0..**
...*....**
...**...**
*.****.**.
.........-
..........

Generation = 24, Population = 23.
.***......
...*....*-
*..*...*.*
*.....-...
**...-.*..
...*...*..
.....*....
..*..*.***
...**....-
..........

Generation = 25, Population = 22.
..**......
.*.**...*-
........*.
*.....-.*.
**...-....
......*...
....*..*..
...*.**.*.
...**...*1
..........

Generation = 26, Population = 26.
..***.....
...**....0
.......***
**....-...
**...-....
..........
....*..*..
...*.**.**
...***.***
..........

Generation = 27, Population = 25.
..*.*.....
..*.*....1
........**
**....-.*.
**...-....
..........
....*****.
...*.....*
...*.*.*.*
....*...*.

Generation = 28, Population = 25.
..........
........**
.*......**
**....-.**
**...-....
.....***..
....*****.
...*.....*
...*.....*
....*...*.

Generation = 29, Population = 27.
..........
........**
**.....*..
..*...-.**
**...0***.
....*...*.
....*...*.
...*.***.*
...**...**
..........

Generation = 30, Population = 30.
..........
........*.
.*.....*..
..*...1..*
.*...1*...
....*.*.**
...**.*.**
...*.***.*
...*******
..........

Generation = 31, Population = 25.
..........
..........
.......**.
.**..***..
.....**.**
...**.*.**
...*......
..*.......
...*.....*
....*****.

Generation = 32, Population = 28.
..........
..........
.......**.
.....*...*
..**.....*
...**.*.**
..***.....
..**......
...******.
....*****.

Generation = 33, Population = 16.
..........
..........
........*.
.........*
..**.*...*
.....*..**
.....*....
......**..
..*.....*.
...*....*.

Generation = 34, Population = 14.
..........
..........
..........
........**
....*....*
.....**.**
.....*.**.
......**..
........*.
..........

Generation = 35, Population = 12.
..........
..........
..........
........**
.....*.*..
....***..*
.....*...*
......*...
.......*..
..........

Generation = 36, Population = 9.
..........
..........
..........
........*.
....**.*.*
....*...*.
....*.....
......*...
..........
..........

Generation = 37, Population = 9.
..........
..........
..........
........*.
....**.*.*
...**...*.
.....*....
..........
..........
..........

Generation = 38, Population = 10.
..........
..........
..........
........*.
...***.*.*
...*..*.*.
....*.....
..........
..........
..........

Generation = 39, Population = 12.
..........
..........
..........
....*...*.
...*****.*
...*..***.
..........
..........
..........
..........

Generation = 40, Population = 10.
..........
..........
..........
...**.***.
...*.....*
...*....*.
.......*..
..........
..........
..........

*** Life<Cell> 10x10 ***

Generation = 0, Population = 45.
0--0-0-0--
-0--0000--
-00-0-00--
00-----0-0
0-----0-0-
-0-00----0
0000-000--
--000----0
00---0--0-
-00-000---

Generation = 14, Population = 34.
.-.......-
..*...**..
-.......1*
..0******.
**...*....
*.**....*.
..*-*..*.-
..***.-.**
**.*.*.-..
***.......

Generation = 28, Population = 4.
.-........
..........
-.........
.*........
*.........
*.*.......
...-......
......-...
..........
..........

Generation = 42, Population = 0.
.-........
..........
-.........
..........
..........
..........
...-......
......-...
..........
..........

Generation = 56, Population = 0.
.-........
..........
-.........
..........
..........
..........
...-......
......-...
..........
..........

Generation = 70, Population = 0.
.-........
..........
-.........
..........
..........
..........
...-......
......-...
..........
..........

Generation = 84, Population = 0.
.-........
..........
-.........
..........
..........
..........
...-......
......-...
..........
..........

Generation = 98, Population = 0.
.-........
..........
-.........
..........
..........
..........
...-......
......-...
..........
..........

*** Life<Cell> 10x10 ***

Generation = 0, Population = 45.
------00--
-0000000--
-0--0--0--
-0-0-0---0
---00000--
-00-00-0--
-0-00----0
0----00---
-00-0000--
0--00-00-0

Generation = 14, Population = 20.
-..0-0..-.
-*........
..*.......
*.-.-.....
-**0...-..
.-.*......
-.*.*.....
..-*.*-**1
....**.**.
.......--.

Generation = 28, Population = 18.
1..---..-.
-.........
..........
..........
.*.....*..
*.***.*...
...**.*...
*.....-*..
.****.....
...*......

Generation = 42, Population = 15.
1..---..-.
-.........
.**.......
...**.*...
*......*..
**........
.*.....*..
...***....
..........
..........

Generation = 56, Population = 8.
...---..-.
..........
..........
..........
..........
..**......
.*..*.....
.*..*.....
..**......
..........

Generation = 70, Population = 8.
...---..-.
..........
..........
..........
..........
..**......
.*..*.....
.*..*.....
..**......
..........

Generation = 84, Population = 8.
...---..-.
..........
..........
..........
..........
..**......
.*..*.....
.*..*.....
..**......
..........

Generation = 98, Population = 8.
...---..-.
..........
..........
..........
..........
..**......
.*..*.....
.*..*.....
..**......
..........
