*** Life<Cell> 2x2 ***

Generation = 0, Population = 4.
00
00

Generation = 1, Population = 0.
--
--

Generation = 2, Population = 0.
--
--

Generation = 3, Population = 0.
--
--

Generation = 4, Population = 0.
--
--

Generation = 5, Population = 0.
--
--

*** Life<Cell> 9x9 ***

Generation = 0, Population = 6.
--0------
-------0-
----0--0-
---------
----0----
---------
---------
-----0---
---------

Generation = 2, Population = 16.
0-0----1-
-----0---
----011--
-------1-
--0-0-00-
-----0---
----0----
---0---0-
---------

Generation = 4, Population = 19.
0-----11-
---0-----
0-01-..10
-----1-.-
0-0-----1
-------1-
----0--1-
-0---0---
----0----

Generation = 6, Population = 25.
0--101*.-
-0---11--
-0---...-
-----11*-
0--1--1--
-0---0-.-
0---001.1
---------
--0---00-

*** Life<Cell> 14x15 ***

Generation = 0, Population = 9.
0----------0---
---0---------0-
--------------0
--0------------
---------------
-0-------------
---------------
---------------
---------------
---------------
---------------
----0----------
---------------
-0-------------

Generation = 1, Population = 27.
-0-0------0-00-
0-0-0------00--
--00-----------
-0-0----------0
-00------------
0-0------------
-0-------------
---------------
---------------
---------------
----0----------
---0-0---------
-0--0----------
0-0------------

Generation = 2, Population = 29.
--0------0-0-10
-01--0-----1---
0----------00-0
01-10--------0-
--------------0
--10-----------
---------------
-0-------------
---------------
----0----------
---------------
-00---0--------
---------------
-0-00----------

Generation = 3, Population = 65.
--10-0--0--1-*1
-1-00-0--00--0-
100000----0-10-
-*-*10-----0--0
000-0----------
-0*10---------0
-000-----------
0-0------------
-0--0----------
---0-0---------
-00-0-0--------
0110-0-0-------
--000-0--------
0--110---------

*** Life<Cell> 16x20 ***

Generation = 0, Population = 7.
--------------------
----0---------------
------0-------------
--------------------
------0-------------
---------0----------
--------------------
-------0------------
--------------------
---------0----------
---------------0----
--------------------
--------------------
--------------------
--------------------
--------------------

Generation = 1, Population = 26.
----0---------------
---0-00-------------
----00-0------------
--------------------
-----0-0-0----------
------0-0-0---------
-------0-0----------
------0-0-----------
-------0-0----------
--------0-0----0----
---------0----0-0---
---------------0----
--------------------
--------------------
--------------------
--------------------

Generation = 2, Population = 21.
------0-------------
--0---1-------------
----1-0-0-----------
----0----0----------
----0-0-0-----------
-----------0--------
------0-------------
-----0---0----------
---------------0----
-----------0--------
-------------0---0--
---------0----------
---------------0----
--------------------
--------------------
--------------------

Generation = 3, Population = 57.
--0--010------------
-0-000-00-----------
--00*-1-------------
---0-0--0-0---------
---01------0--------
----0---0-0-0-------
-------0-0-0--------
----0---0-0----0----
-----0---0-0--0-0---
----------0-00-0-0--
---------0-00-0-0-0-
--------0-0--0-0-0--
---------0----0-0---
---------------0----
--------------------
--------------------

*** Life<Cell> 6x7 ***

Generation = 0, Population = 4.
-------
0------
-------
----0--
0----0-
-------

Generation = 1, Population = 10.
0------
-0-----
0---0--
0--0---
-0----0
0----0-

Generation = 2, Population = 12.
-------
0-0-0--
1----0-
1-0---0
0-00---
----0--

Generation = 3, Population = 12.
0-0-0--
1------
-0-----
--1----
1--1--0
0-0--0-

*** Life<Cell> 17x19 ***

Generation = 0, Population = 6.
--0---------0------
-------------------
-------------------
---0---------------
--0----------------
-------------------
------0------------
-------------------
-------------------
-------------------
-------------------
0------------------
-------------------
-------------------
-------------------
-------------------
-------------------

Generation = 1, Population = 17.
-0-0-------0-0-----
--0---------0------
---0---------------
----0--------------
-0-----------------
--0---0------------
-----0-0-----------
------0------------
-------------------
-------------------
0------------------
-0-----------------
0------------------
-------------------
-------------------
-------------------
-------------------

Generation = 2, Population = 22.
0-0-0-----0-0-0----
---0---------------
------------0------
-0---0-------------
0---0-0------------
---0---------------
--0-0---0----------
-------------------
------0------------
0------------------
-------------------
0-0----------------
-------------------
0------------------
-------------------
-------------------
-------------------

Generation = 3, Population = 39.
---0-0---0-----0---
0---------0---0----
-0-0-0-----0-0-----
--0---------0------
-----0-0-----------
0---0-0-0----------
-0-0-0-0-0---------
--0-0-0-0----------
0----0-0-----------
-0----0------------
--0----------------
---0---------------
--0----------------
-0-----------------
0------------------
-------------------
-------------------

*** Life<Cell> 25x24 ***

Generation = 0, Population = 9.
--------------------0---
0-----------------------
---0--------------------
------------------------
0-0---------------------
------------------------
------------------------
------------------------
------------------------
------------------------
0-----------------------
-------------0----------
------------------------
--0---------------------
0-----------------------
------------------------
------------------------
------------------------
------------------------
------------------------
------------------------
------------------------
------------------------
------------------------
------------------------

Generation = 2, Population = 31.
---0--------------0-0-0-
0-0---------------------
101--0--------------0---
1-----------------------
--010-------------------
------------------------
0-0---------------------
------------------------
0-----------------------
-------------0----------
0-0---------------------
--0--------0---0--------
------------------------
1---0--------0----------
0-1---------------------
--0---------------------
0-----------------------
------------------------
------------------------
------------------------
------------------------
------------------------
------------------------
------------------------
------------------------

Generation = 4, Population = 35.
1-00------------0-------
*-*-0-------------------
*------0------------0---
*-----------------------
1-*-*-0-------------0---
1-----------------------
0--1--------------------
-------------0----------
0-0---------------------
--1---------------------
0-*-0-------------------
---------0-------0------
------------------------
*-----0-----------------
*-.-1-------------------
-------------0----------
------------------------
--0---------------------
0-----------------------
------------------------
------------------------
------------------------
------------------------
------------------------
------------------------

*** Life<Cell> 4x6 ***

Generation = 0, Population = 4.
-----0
---0--
---0--
0-----

Generation = 1, Population = 12.
---00-
--0100
0-010-
-0-0--

Generation = 2, Population = 6.
------
00---1
-0----
--01--

Generation = 3, Population = 12.
00---0
1-0-0-
-1-1-0
--1*0-

*** Life<Cell> 10x5 ***

Generation = 0, Population = 5.
-----
---0-
-----
0----
--0--
-----
0----
-----
-----
---0-

Generation = 2, Population = 13.
-----
00---
--0--
0-10-
----0
1----
0----
---0-
0----
-0-0-

Generation = 4, Population = 13.
--0--
-----
0----
--1-0
0---0
*----
--0-0
0--0-
--0--
---0-

*** Life<Cell> 4x10 ***

Generation = 0, Population = 7.
-----0----
--0-------
0----0-0--
----0---0-

Generation = 1, Population = 12.
--0-0-0---
00-0---0--
-00-------
0--0-----0

Generation = 2, Population = 11.
0--0------
1-------0-
0-10---0-0
----0---0-

Generation = 3, Population = 14.
100-0---0-
-00-------
1-*1--0---
0-0--0----

Generation = 4, Population = 18.
*1---0-0-0
1-1-0-0-0-
*0.*0--0--
1-1-0-----

Generation = 5, Population = 17.
**----0-0-
---010----
*1..10----
*0-010-0--
